…
Getting Started
===============

The `.Rds` format can be read into R. This format preserves dataset properties such as the distinction between integers and doubles, and labelled variables.

``` r
df <- readRDS("cumulative_2006_2016.Rds")
```

``` r
library(tidyverse)
df
```

    ## # A tibble: 374,556 x 67
    ##     year case_id weight weight_cumulative state  st    CD     dist dist_up
    ##    <int>   <int>  <dbl>             <dbl> <chr>  <chr> <chr> <int>   <int>
    ##  1  2006  439219  1.85              1.67  North… NC    NC-10    10      10
    ##  2  2006  439224  0.968             0.872 Ohio   OH    OH-3      3       3
    ##  3  2006  439228  1.59              1.44  New J… NJ    NJ-1      1       1
    ##  4  2006  439237  1.40              1.26  Illin… IL    IL-9      9       9
    ##  5  2006  439238  0.903             0.813 New Y… NY    NY-22    22      22
    ##  6  2006  439242  0.839             0.756 Texas  TX    TX-11    11      11
    ##  7  2006  439251  0.777             0.700 Minne… MN    MN-3      3       3
    ##  8  2006  439254  0.839             0.756 Nevada NV    NV-2      2       2
    ##  9  2006  439255  0.331             0.299 Texas  TX    TX-24    24      24
    ## 10  2006  439263  1.10              0.993 Maryl… MD    MD-2      2       2
    ## # ... with 374,546 more rows, and 58 more variables: cong <int>, cong_up
    ## #   <int>, zipcode <chr>, countyFIPS <chr>, tookpost <int+lbl>, weight_vv
    ## #   <dbl>, weight_vv_post <dbl>, starttime <dttm>, pid3 <int+lbl>, pid7
    ## #   <int+lbl>, gender <int+lbl>, birthyr <int>, age <int>, race <int+lbl>,
    ## #   educ <int+lbl>, economy_retro <int+lbl>, approval_pres <int+lbl>,
    ## #   approval_rep <fct>, approval_sen1 <fct>, approval_sen2 <fct>,
    ## #   approval_gov <int+lbl>, intent_pres_08 <fct>, intent_pres_12 <fct>,
    ## #   intent_pres_16 <fct>, voted_pres_08 <fct>, voted_pres_12 <fct>,
    ## #   voted_pres_16 <fct>, vv_regstatus <fct>, vv_party_gen <fct>,
…
Unified Variable Names
----------------------

Candidate Names and Identifiers
-------------------------------

One addition to this cumulative dataset above the individual years that comprise it is the addition of candidate name and identifiers that a respondent chose. In the individual year's CCES datasets, typically the response values for a vote choice question is a generic label, e.g. `Candidate1` and `Candidate2`. Then, separate variables with those names are appended, requiring users to look-up the relevant candidate for each respondent. The cumulative dataset shows both the generic label *and* the chosen candidate's name, party, and identifier, which will vary across individuals.

``` r
select(df, year, case_id, st, matches("voted_sen"))
```

    ## # A tibble: 374,556 x 6
    ##     year case_id st    voted_sen         voted_sen_chosen    voted_sen_fec
    ##    <int>   <int> <chr> <fct>             <chr>               <chr>        
    ##  1  2006  439219 NC    <NA>              <NA>                <NA>         
    ##  2  2006  439224 OH    [Democrat / Cand… Sherrod C. Brown (… S6OH00163    
    ##  3  2006  439228 NJ    [Democrat / Cand… Robert Menendez (D) S6NJ00289    
    ##  4  2006  439237 IL    <NA>              <NA>                <NA>         
    ##  5  2006  439238 NY    [Democrat / Cand… Hillary Rodham Cli… S0NY00188    
    ##  6  2006  439242 TX    I Did Not Vote I… <NA>                <NA>         
    ##  7  2006  439251 MN    [Republican / Ca… Mark Kennedy (R)    S6MN00275    
    ##  8  2006  439254 NV    [Democrat / Cand… Jack Carter (D)     S6NV00150    
    ##  9  2006  439255 TX    [Democrat / Cand… Barbara Ann Radnof… S6TX00180    
    ## 10  2006  439263 MD    I Did Not Vote I… <NA>                <NA>         
    ## # ... with 374,546 more rows
…
